%YAML 1.1
%TAG !u! tag:unity3d.com,2011:
--- !u!114 &11400000
MonoBehaviour:
  m_ObjectHideFlags: 0
  m_CorrespondingSourceObject: {fileID: 0}
  m_PrefabInstance: {fileID: 0}
  m_PrefabAsset: {fileID: 0}
  m_GameObject: {fileID: 0}
  m_Enabled: 1
  m_EditorHideFlags: 0
  m_Script: {fileID: 11500000, guid: 27e11fa3730193f48b3c988916a539f0, type: 3}
  m_Name: Car
  m_EditorClassIdentifier: 
  _prefab: {fileID: 7812658124759893132, guid: 9af4438f898d2be47a7a2f3eb49c111e, type: 3}
