%YAML 1.1
%TAG !u! tag:unity3d.com,2011:
--- !u!78 &1
TagManager:
  serializedVersion: 2
  tags:
  - CinemachineCamera
  layers:
  - Default
  - TransparentFX
  - Ignore Raycast
  - 
  - Water
  - UI
  - 
  - 
  - 
  - 
  - 
  - 
  - 
  - 
  - 
  - 
  - 
  - 
  - 
  - 
  - 
  - 
  - 
  - 
  - 
  - 
  - 
  - 
  - 
  - 
  - 
  - 
  m_SortingLayers:
  - name: Default
    uniqueID: 0
    locked: 0
  - name: UI_HUD
    uniqueID: 1135917707
    locked: 0
  - name: UI_WINDOWS
    uniqueID: 2155622607
    locked: 0
  - name: UI_POPUP
    uniqueID: 2342036511
    locked: 0
  - name: UI_TOOLTIPS
    uniqueID: 1469409981
    locked: 0
  - name: UI_NOTIFICATIONS
    uniqueID: 324429031
    locked: 0
  - name: UI_OVERLAYS
    uniqueID: 3712374395
    locked: 0
